%YAML 1.1
%TAG !u! tag:unity3d.com,2011:
--- !u!114 &-5861116280312877048
MonoBehaviour:
  m_ObjectHideFlags: 11
  m_CorrespondingSourceObject: {fileID: 0}
  m_PrefabInstance: {fileID: 0}
  m_PrefabAsset: {fileID: 0}
  m_GameObject: {fileID: 0}
  m_Enabled: 1
  m_EditorHideFlags: 0
  m_Script: {fileID: 11500000, guid: d0353a89b1f911e48b9e16bdc9f2e058, type: 3}
  m_Name: 
  m_EditorClassIdentifier: 
  version: 7
--- !u!21 &2100000
Material:
  serializedVersion: 8
  m_ObjectHideFlags: 0
  m_CorrespondingSourceObject: {fileID: 0}
  m_PrefabInstance: {fileID: 0}
  m_PrefabAsset: {fileID: 0}
  m_Name: Planet4
  m_Shader: {fileID: -6465566751694194690, guid: cc5eaa73db156014c8403138acd449cf,
    type: 3}
  m_Parent: {fileID: 0}
  m_ModifiedSerializedProperties: 0
  m_ValidKeywords: []
  m_InvalidKeywords: []
  m_LightmapFlags: 2
  m_EnableInstancingVariants: 0
  m_DoubleSidedGI: 0
  m_CustomRenderQueue: -1
  stringTagMap: {}
  disabledShaderPasses: []
  m_LockedProperties: 
  m_SavedProperties:
    serializedVersion: 3
    m_TexEnvs:
    - Texture2D_5145D7C1:
        m_Texture: {fileID: 2800000, guid: caba6f85e938f3547ae50e4f4427b692, type: 3}
        m_Scale: {x: 1, y: 1}
        m_Offset: {x: 0, y: 0}
    - Texture2D_EC10A0E1:
        m_Texture: {fileID: 2800000, guid: a9a5df84310f75e4ab75178eb6eea732, type: 3}
        m_Scale: {x: 1, y: 1}
        m_Offset: {x: 0, y: 0}
    - unity_Lightmaps:
        m_Texture: {fileID: 0}
        m_Scale: {x: 1, y: 1}
        m_Offset: {x: 0, y: 0}
    - unity_LightmapsInd:
        m_Texture: {fileID: 0}
        m_Scale: {x: 1, y: 1}
        m_Offset: {x: 0, y: 0}
    - unity_ShadowMasks:
        m_Texture: {fileID: 0}
        m_Scale: {x: 1, y: 1}
        m_Offset: {x: 0, y: 0}
    m_Ints: []
    m_Floats:
    - Vector1_4230761A: 0
    - Vector1_7C2CA03A: 0.6
    - Vector1_8AAC51AB: 3
    - Vector1_8B402303: 10
    - _QueueControl: 0
    - _QueueOffset: 0
    m_Colors:
    - Color_3A1AD9FC: {r: 0.4509804, g: 0.34901962, b: 0.14901961, a: 0}
    - Color_50BD6D88: {r: 0.5568628, g: 0.4509804, b: 0.33333334, a: 1}
    - Color_6E8F570E: {r: 0.67058825, g: 0.6431373, b: 0.49411765, a: 0}
    - Color_E23F0A0D: {r: 0.8509804, g: 0.74509805, b: 0.5411765, a: 0}
    - Color_EA520B63: {r: 3.9999995, g: 1.754307, b: 0.33507842, a: 0}
    - Vector3_11CBC6A: {r: -1.7, g: 0, b: 0.95, a: 0}
  m_BuildTextureStacks: []
